<svg width="86" height="86" viewBox="0 0 86 86" fill="none" xmlns="http://www.w3.org/2000/svg">
<g filter="url(#filter0_d_274_215)">
<circle cx="43" cy="39" r="30" fill="url(#paint0_linear_274_215)"/>
</g>
<path fill-rule="evenodd" clip-rule="evenodd" d="M44.7736 26.2917C44.6705 25.4036 43.9157 24.7142 42.9999 24.7142C42.0137 24.7142 41.2142 25.5137 41.2142 26.4999V37.2142H30.4999L30.2917 37.2262C29.4036 37.3294 28.7142 38.0842 28.7142 38.9999C28.7142 39.9862 29.5137 40.7857 30.4999 40.7857H41.2142V51.4999L41.2262 51.7082C41.3294 52.5963 42.0842 53.2857 42.9999 53.2857C43.9862 53.2857 44.7857 52.4862 44.7857 51.4999V40.7857H55.4999L55.7082 40.7736C56.5963 40.6705 57.2857 39.9157 57.2857 38.9999C57.2857 38.0137 56.4862 37.2142 55.4999 37.2142H44.7857V26.4999L44.7736 26.2917Z" fill="white"/>
<defs>
<filter id="filter0_d_274_215" x="0" y="0" width="86" height="86" filterUnits="userSpaceOnUse" color-interpolation-filters="sRGB">
<feFlood flood-opacity="0" result="BackgroundImageFix"/>
<feColorMatrix in="SourceAlpha" type="matrix" values="0 0 0 0 0 0 0 0 0 0 0 0 0 0 0 0 0 0 127 0" result="hardAlpha"/>
<feOffset dy="4"/>
<feGaussianBlur stdDeviation="6.5"/>
<feColorMatrix type="matrix" values="0 0 0 0 0 0 0 0 0 0.2 0 0 0 0 0.384314 0 0 0 0.394094 0"/>
<feBlend mode="normal" in2="BackgroundImageFix" result="effect1_dropShadow_274_215"/>
<feBlend mode="normal" in="SourceGraphic" in2="effect1_dropShadow_274_215" result="shape"/>
</filter>
<linearGradient id="paint0_linear_274_215" x1="39.531" y1="-4.77077" x2="-0.49822" y2="43.6918" gradientUnits="userSpaceOnUse">
<stop stop-color="#00629C"/>
<stop offset="1" stop-color="#003362"/>
</linearGradient>
</defs>
</svg>
